<svg xmlns="http://www.w3.org/2000/svg" viewBox="0 0 98.6 59.64">
  <path fill="none" d="M59.2 5.9v.4z"/>
  <path d="M93.7 6.7h-.8l-1.8 1.9a2.2 2.2 0 00.8.1h1.8L95.4 7a1.42 1.42 0 00-.6-.2 4.48 4.48 0 00-1.1-.1zM87.9 6.8L86 8.6h.1a3.55 3.55 0 001 .2h1.7l1.7-1.7a2.22 2.22 0 00-1.6-.3zM79.2 6.9h-.3V5.5c0-.3-.1-.4-.4-.5-1.5-.6-3.1-1.2-4.6-1.7a.9.9 0 00-.5-.1c-1.3 0-2.5 0-3.8.1h-.3v-.5c0-.3-.1-.4-.4-.4h-.6v-.1c-.1-.4-.2-.4-.6-.4-1.8 0-3.7.1-5.5.1h-2.3c-.4 0-.5.1-.5.5v.6c0 .2 0 .3-.1.4a.35.35 0 00-.1.2v6.6h.1V13c0 .2 0 .4.3.5v.6a.37.37 0 00.1.3c.1.2.2.3.4.3h1.1c2.2 0 4.5-.1 6.7-.1.4 0 .4-.1.5-.4a.31.31 0 01.1-.2h.5c.3 0 .4-.1.4-.4v-.5h.3c1.2 0 2.5 0 3.7-.1a.75.75 0 00.5-.1c1.5-.6 3.1-1.3 4.6-1.9.2-.1.3-.2.3-.4V9h.3c1.5 0 2.9-.1 4.4-.1l1.8-1.8a4.15 4.15 0 00-1.6-.3c-1.4.1-2.9.1-4.5.1zM50.5 22.8h-2.8a.9.9 0 00-.5.1.55.55 0 00-.3.5c0 .2.1.3.4.4a.6.6 0 01.4.1c.5.1 1.1.1 1.6.2a1.42 1.42 0 01.6.2 2.54 2.54 0 011.4 1.3 5.26 5.26 0 01.4 1.7 22.84 22.84 0 010 3.7c-.1 2.2-.3 4.5-.4 6.7-.2 3.5-.3 7-.2 10.4 0 2.4.1 4.9.2 7.3a22.75 22.75 0 00.2 2.6v.3c-.1 0-.1.1-.2.1-.4.2-.4.7.1.9a2.92 2.92 0 00.9.2 19 19 0 003.4.1c1.1-.1 2.2-.1 3.3-.2.3 0 .5-.1.8-.1.1 0 .2-.1.3-.1.3-.2.4-.6 0-.8-.1 0-.1-.1-.2-.1v-1.5c.1-3.1.1-6.2 0-9.4-.1-2.1-.2-4.1-.3-6.2s-.3-3.9-.5-5.8-.3-3.9-.5-5.8a10.75 10.75 0 01.1-3.1c.1-.4.2-.7.3-1.1a2 2 0 011.2-1.2 3.29 3.29 0 011.7-.4 2 2 0 00.7-.1.66.66 0 00.5-.4.44.44 0 00-.4-.6h-.3l-11.9.1z"/>
  <path d="M57.1 14.2a.76.76 0 00.4-.1c0-1.3 0-2.6-.1-3.9h.2v-4h-.3c0-1.2 0-2.4-.1-3.6h-.4V1.2a.37.37 0 00-.4-.4h-3.3c-.4 0-.5.2-.5.5v1.3a.66.66 0 01-.6-.1A19 19 0 0046.4.8a44 44 0 00-8.9-.8c-3.2 0-6.4.1-9.6.2-2.2.1-.2.5-2 .6s-3.8.3-5.7.5c-3.3.3-6.6.7-9.9 1.3a25.85 25.85 0 00-4 .9 2 2 0 00-.8.4 1 1 0 00-.4 1.5A3.13 3.13 0 006 6.5a2.51 2.51 0 011 2.1 5.11 5.11 0 01-.3 2.1 65.43 65.43 0 00-2.4 7.5 116.1 116.1 0 00-2.9 13C1 33.4.7 35.5.5 37.7c-.2 1.4-.3 2.8-.4 4.1S0 44.2 0 45.4a1.46 1.46 0 00.7 1.3.1.1 0 01.1.1.55.55 0 01.3.5v.5a2.28 2.28 0 00.6 1.2l.9.6a17.6 17.6 0 003 1 .37.37 0 01.3.1 3 3 0 011.3.5 2.46 2.46 0 002.2.3 1.42 1.42 0 00.6-.2 2.18 2.18 0 00.5-.4 7.22 7.22 0 00.9-2 1.16 1.16 0 00-.2-1 35.42 35.42 0 01-1.9-3.3 1.67 1.67 0 01-.1-1.2c.5-2.1.9-4.2 1.3-6.4v-.1c0-.2.1-.3.3-.4s.3-.1.5-.2.1 0 .2-.1c.3 0 .6-.1.8-.1a1.7 1.7 0 001.5-1.4c.1-.4.1-.8.2-1.1 0-.1 0-.2.1-.2s.2-.2.2-.3l.6-2.4c0-.1.1-.3 0-.4V30c.1-.4.2-.8.3-1.3a.85.85 0 01.7-.7h.8l1.4.3a.76.76 0 00.9-.3 4.35 4.35 0 00.6-.7c.9-1.2 1.8-2.4 2.6-3.7.1-.2.3-.2.5-.2a31.81 31.81 0 003.8-.2 1.14 1.14 0 01.8.3.91.91 0 00.7.3c2.8-.1 5.6-.1 8.4-.2V1.8h3v21.6c.3 0 .6-.1.8-.1s.5-.2.8-.3a2.94 2.94 0 001.6-1.5 1 1 0 01.4-.5 17.39 17.39 0 011.8-1.1c1.6-1 3.3-2 4.8-3.1a18.63 18.63 0 002.6-2.3c.2-.2.3-.3.6-.2 0 2.3.1 4.6.1 7l4.3-.1c0-2.3-.1-4.6-.1-7zM97.9 6.7a.1.1 0 01-.1-.1L96 8.4a1.2 1.2 0 00.8.2h.8c.2 0 .3 0 .4-.2s.4-.5.6-.8a5.5 5.5 0 00-.7-.9z"/>
</svg>