<svg xmlns="http://www.w3.org/2000/svg" viewBox="0 0 94.48 84.3">
  <path d="M7 60.4l-1.2-.6-1.5-.3a1.33 1.33 0 00-1.4 1.7 16.67 16.67 0 00.8 2 1.1 1.1 0 01.1 1.1c-.3.8-.6 1.7-.9 2.6.9-.4 1.8-.8 2.6-1.2a.9.9 0 011 0 4.07 4.07 0 001.8.5 1.26 1.26 0 001.5-1.6 12.66 12.66 0 00-.6-1.8 5.67 5.67 0 00-.8-1.3c-.4-.3-.8-.6-1.4-1.1z"/>
  <path d="M93.2 76.6a2 2 0 00-2.5 1.4 2.85 2.85 0 01-1.8 1.9 8.66 8.66 0 01-3.2.6H57.5a2 2 0 01-.7-.1c.1-.2.1-.4.2-.6.4-1.1.4-1.1 1.6-1.1h18.8a14.77 14.77 0 002.1-.1 8.34 8.34 0 004.8-1.8c1.3-1.1 2.3-2.5 1.7-4.4a1.76 1.76 0 00-1-1.2 2 2 0 00-2.6 1.4 2.4 2.4 0 01-1.7 1.8 14 14 0 01-2.8.6H59.7a2 2 0 01-.7-.1 10.37 10.37 0 01.4-1c1.4-3.6 2.8-7.1 4.2-10.6a4.61 4.61 0 00-.4-4.4c-2.1-3.2-4.2-6.5-6.3-9.7a.91.91 0 01-.1-1.1c2-4.2 4.1-8.4 6.1-12.6a5.74 5.74 0 01.4-.7 1.38 1.38 0 00.3.4c1.5 2.3 3 4.6 4.4 6.9a3.55 3.55 0 005.3 1.2c2.5-1.6 5-3.2 7.4-4.8.2-.1 4-2.6 4.4-2.9a15.26 15.26 0 001.6-1.1 3.26 3.26 0 00-3.9-5.2c-3.2 1.9-6.4 3.7-9.6 5.6l-.6.3c-.4-.6-.7-1.3-1.1-1.8-1.6-2.4-3.1-5-4.9-7.3a13.09 13.09 0 00-10-5.2 44.08 44.08 0 00-8.1.5c-2.6.2-5.1.5-7.7.8a5 5 0 00-2.4.9c-3.6 2.9-7.1 5.8-10.7 8.6a3.14 3.14 0 00-1.3 3.1 10 10 0 002.3 2.7c1.3.4 2.3-.2 3.3-.9 2.9-2.1 5.7-4.1 8.6-6.3a4.88 4.88 0 013.3-1.1c.4 0 .8-.1 1.1-.1 1.2-.1 2.5-.1 3.8-.2-1.1 3.4-1.9 6.5-4.1 9.9a7.5 7.5 0 00.2 9 17.1 17.1 0 001.1 1.4.89.89 0 01.2 1.1c-1.1 3.3-2.2 6.6-3.3 10a2.29 2.29 0 01-.7 1c-3.6 3.3-7.2 6.5-10.9 9.7a5.05 5.05 0 00-2.1 3.7.35.35 0 00-.1.2H1.8C.7 75 0 75.6 0 76.6a1.86 1.86 0 001.7 1.9h47.5v1.8H9.9a2 2 0 00-1.8 1.9 2 2 0 001.6 2 5.7 5.7 0 001.3.1h74.5a10.84 10.84 0 005.8-1.4 5.81 5.81 0 003-4.1 1.55 1.55 0 00-1.1-2.2zm-42.5-1.7H39.1c.5-.4.8-.7 1.2-1 2.9-2.3 5.8-4.6 8.6-6.9a4.81 4.81 0 001.7-2.3c.7-1.9 1.4-3.8 2.1-5.8.8 1.1 1.5 2.2 2.3 3.2-1.4 4.3-2.8 8.5-4.3 12.8z"/>
  <path d="M75.7 65.7a6.1 6.1 0 00-2.7.3 1.36 1.36 0 00-.6 2.3 4.81 4.81 0 001.6 1.2c.4.3.7.5.7 1 .1.9.3 1.7.4 2.8.4-.6.8-1.1 1.1-1.6a2.29 2.29 0 012.3-1.5h.3c.8-.2 1.5-.4 1.7-1.3s-.4-1.4-1-1.9a2.18 2.18 0 00-.8-.5 20.44 20.44 0 00-3-.8zM67 6a7.77 7.77 0 017.9 7.9 7.88 7.88 0 01-7.9 8A8 8 0 0167 6zM5.49658406 62.837404L32.7989813 29.2298289l1.08661905.88275649-27.30239725 33.6075751z"/>
  <path d="M75.79362525 68.055251L86.03782631 23.9287698l1.36373231.31659782-10.24420106 44.12648122zM70.5 5.9c-3-3.3-6.2-3-10.9-3.2-1.6 5-2 6.8-1.5 9.7z"/>
  <circle cx="59.4" cy="1.9" r="1.9"/>
  <path d="M72 7.9l-12.9 6.9a.48.48 0 01-.6-.2l-1.2-2.2a.48.48 0 01.2-.6l12.9-6.9a.48.48 0 01.6.2l1.2 2.2a.48.48 0 01-.2.6z"/>
</svg>